<svg xmlns="http://www.w3.org/2000/svg" width="28" height="30" viewBox="0 0 28 30" xmlns:xlink="http://www.w3.org/1999/xlink">
  <defs>
    <path id="b" d="M18,16 L18,34 C18,34.7648265 18.8236572,35.2465403 19.4902612,34.8715755 L35.4902612,25.8715755 C36.1699129,25.4892715 36.1699129,24.5107285 35.4902612,24.1284245 L19.4902612,15.1284245 C18.8236572,14.7534597 18,15.2351735 18,16 Z"/>
    <filter id="a" width="200%" height="200%" x="-50%" y="-50%" filterUnits="objectBoundingBox">
      <feOffset in="SourceAlpha" result="shadowOffsetOuter1"/>
      <feGaussianBlur stdDeviation="2.5" in="shadowOffsetOuter1" result="shadowBlurOuter1"/>
      <feColorMatrix values="0 0 0 0 0 0 0 0 0 0 0 0 0 0 0 0 0 0 0.2 0" in="shadowBlurOuter1"/>
    </filter>
  </defs>
  <g fill="none" fill-rule="evenodd" transform="translate(-13 -10)">
    <use fill="black" filter="url(#a)" xlink:href="#b"/>
    <use fill="#FFFFFF" xlink:href="#b"/>
  </g>
</svg>
